{
  "windows": "Windows",
  "arch": "Arch Linux",
  "debian": "Debian based",
  "gentoo": "Gentoo",
  "fedora": "Fedora",
  "opensuse": "openSUSE",
  "linux": "Other Linux",
  "macos": "macOS",
  "openbsd": { "type": "nav", "title": "OpenBSD", "hidden": true },
  "index": {
    "type": "nav",
    "hidden": true
  }
}
